sim/work/dump.vcd
$date
	Mon Dec 18 09:46:14 2023
$end
$version
	QuestaSim Version 10.7c
$end
$timescale
	1ns
$end

$scope module uvm_root $end
$upscope $end

$scope module top_tb $end

$scope module dut $end
$var wire 1 ! clk $end
$var wire 1 " rst $end
$var wire 1 # wr $end
$var wire 1 $ addr [6] $end
$var wire 1 % addr [5] $end
$var wire 1 & addr [4] $end
$var wire 1 ' addr [3] $end
$var wire 1 ( addr [2] $end
$var wire 1 ) addr [1] $end
$var wire 1 * addr [0] $end
$var wire 1 + din [7] $end
$var wire 1 , din [6] $end
$var wire 1 - din [5] $end
$var wire 1 . din [4] $end
$var wire 1 / din [3] $end
$var wire 1 0 din [2] $end
$var wire 1 1 din [1] $end
$var wire 1 2 din [0] $end
$var wire 1 3 datard [7] $end
$var wire 1 4 datard [6] $end
$var wire 1 5 datard [5] $end
$var wire 1 6 datard [4] $end
$var wire 1 7 datard [3] $end
$var wire 1 8 datard [2] $end
$var wire 1 9 datard [1] $end
$var wire 1 : datard [0] $end
$var reg 1 ; done $end
$var wire 1 < sda $end
$var reg 1 = scl $end
$var reg 8 > addrt [7:0] $end
$var reg 8 ? temprd [7:0] $end
$var reg 1 @ en $end
$var reg 1 A sdat $end
$var integer 32 B count $end
$var reg 1 C update $end
$var reg 4 D state [3:0] $end
$var reg 4 E nstate [3:0] $end
$var integer 32 F countn $end
$var reg 8 G addrn [7:0] $end
$var reg 8 H data_rd [7:0] $end
$var reg 8 I datan [7:0] $end
$var reg 1 J sdan $end
$upscope $end
$upscope $end

$scope begin uvm_pkg $end
$var parameter 32 K UVM_HDL_MAX_WIDTH $end
$var parameter 32 L UVM_STREAMBITS $end
$var parameter 32 M UVM_RADIX $end
$var parameter 32 N UVM_MACRO_NUMFLAGS $end
$var parameter 32 O UVM_DEFAULT $end
$var parameter 32 P UVM_ALL_ON $end
$var parameter 32 Q UVM_FLAGS_ON $end
$var parameter 32 R UVM_FLAGS_OFF $end
$var parameter 32 S UVM_COPY $end
$var parameter 32 T UVM_NOCOPY $end
$var parameter 32 U UVM_COMPARE $end
$var parameter 32 V UVM_NOCOMPARE $end
$var parameter 32 W UVM_PRINT $end
$var parameter 32 X UVM_NOPRINT $end
$var parameter 32 Y UVM_RECORD $end
$var parameter 32 Z UVM_NORECORD $end
$var parameter 32 [ UVM_PACK $end
$var parameter 32 \ UVM_NOPACK $end
$var parameter 32 ] UVM_PHYSICAL $end
$var parameter 32 ^ UVM_ABSTRACT $end
$var parameter 32 _ UVM_READONLY $end
$var parameter 32 ` UVM_NODEFPRINT $end
$var parameter 32 a UVM_MACRO_EXTRAS $end
$var parameter 32 b UVM_FLAGS $end
$var parameter 32 c UVM_UNPACK $end
$var parameter 32 d UVM_CHECK_FIELDS $end
$var parameter 32 e UVM_END_DATA_EXTRA $end
$var parameter 32 f UVM_START_FUNCS $end
$var parameter 32 g UVM_SET $end
$var parameter 32 h UVM_SETINT $end
$var parameter 32 i UVM_SETOBJ $end
$var parameter 32 j UVM_SETSTR $end
$var parameter 32 k UVM_END_FUNCS $end
$var parameter 32 l UVM_STR_CRC_POLYNOMIAL $end
$var parameter 32 m UVM_STDOUT $end
$var parameter 32 n UVM_LINE_WIDTH $end
$var parameter 32 o UVM_NUM_LINES $end
$var parameter 32 p UVM_SMALL_STRING $end
$var parameter 32 q UVM_LARGE_STRING $end
$var reg 1 r uvm_start_uvm_declarations $end
$var integer 32 s uvm_global_random_seed $end
$var integer 32 t UVM_UNBOUNDED_CONNECTIONS $end

$scope function uvm_hdl_check_path $end
$var integer 32 u uvm_hdl_check_path $end
$upscope $end

$scope function uvm_hdl_deposit $end
$var integer 32 v uvm_hdl_deposit $end
$var reg 1024 w value [1023:0] $end
$upscope $end

$scope function uvm_hdl_force $end
$var integer 32 x uvm_hdl_force $end
$var reg 1024 y value [1023:0] $end
$upscope $end

$scope task uvm_hdl_force_time $end
$var reg 1024 z value [1023:0] $end
$var time 64 { force_time $end
$upscope $end

$scope function uvm_hdl_release_and_read $end
$var integer 32 | uvm_hdl_release_and_read $end
$var reg 1024 } value [1023:0] $end
$upscope $end

$scope function uvm_hdl_release $end
$var integer 32 ~ uvm_hdl_release $end
$upscope $end

$scope function uvm_hdl_read $end
$var integer 32 !! uvm_hdl_read $end
$var reg 1024 "! value [1023:0] $end
$upscope $end

$scope function uvm_dpi_get_next_arg $end
$upscope $end

$scope function uvm_dpi_get_tool_name $end
$upscope $end

$scope function uvm_dpi_get_tool_version $end
$upscope $end

$scope function uvm_re_match $end
$var integer 32 #! uvm_re_match $end
$var integer 32 $! e $end
$var integer 32 %! es $end
$var integer 32 &! s $end
$var integer 32 '! ss $end
$upscope $end

$scope function uvm_dump_re_cache $end
$upscope $end

$scope function uvm_glob_to_re $end
$upscope $end

$scope function uvm_revision_string $end
$upscope $end

$scope function uvm_radix_to_string $end
$var integer 32 (! radix $end
$upscope $end

$scope function uvm_instance_scope $end
$var reg 8 )! c [7:0] $end
$var integer 32 *! pos $end
$upscope $end

$scope function uvm_oneway_hash $end
$var integer 32 +! uvm_oneway_hash $end
$var integer 32 ,! seed $end
$var reg 1 -! msb $end
$var reg 8 .! current_byte [7:0] $end
$var reg 32 /! crc1 [31:0] $end
$upscope $end

$scope function uvm_create_random_seed $end
$var integer 32 0! uvm_create_random_seed $end
$upscope $end

$scope function uvm_object_value_str $end
$upscope $end

$scope function uvm_leaf_scope $end
$var reg 8 1! scope_separator [7:0] $end
$var reg 8 2! bracket_match [7:0] $end
$var integer 32 3! pos $end
$var integer 32 4! bmatches $end
$upscope $end

$scope function uvm_vector_to_string $end
$var reg 4096 5! value [4095:0] $end
$var integer 32 6! size $end
$var integer 32 7! radix $end
$upscope $end

$scope function uvm_get_array_index_int $end
$var integer 32 8! uvm_get_array_index_int $end
$var reg 1 9! is_wildcard $end
$var integer 32 :! i $end
$upscope $end

$scope function uvm_get_array_index_string $end
$var reg 1 ;! is_wildcard $end
$var integer 32 <! i $end
$upscope $end

$scope function uvm_is_array $end
$var reg 1 =! uvm_is_array $end
$upscope $end

$scope function uvm_has_wildcard $end
$upscope $end

$scope task run_test $end
$upscope $end

$scope function global_stop_request $end
$upscope $end

$scope function set_global_timeout $end
$var time 64 >! timeout $end
$var reg 1 ?! overridable $end
$upscope $end

$scope function set_global_stop_timeout $end
$var time 64 @! timeout $end
$upscope $end

$scope function uvm_report_enabled $end
$var reg 1 A! uvm_report_enabled $end
$var integer 32 B! verbosity $end
$var reg 2 C! severity [1:0] $end
$upscope $end

$scope function uvm_report $end
$var reg 2 D! severity [1:0] $end
$var integer 32 E! verbosity $end
$var integer 32 F! line $end
$upscope $end

$scope function uvm_report_info $end
$var integer 32 G! verbosity $end
$var integer 32 H! line $end
$upscope $end

$scope function uvm_report_warning $end
$var integer 32 I! verbosity $end
$var integer 32 J! line $end
$upscope $end

$scope function uvm_report_error $end
$var integer 32 K! verbosity $end
$var integer 32 L! line $end
$upscope $end

$scope function uvm_report_fatal $end
$var integer 32 M! verbosity $end
$var integer 32 N! line $end
$upscope $end

$scope function uvm_string_to_severity $end
$var reg 1 O! uvm_string_to_severity $end
$var reg 2 P! sev [1:0] $end
$upscope $end

$scope function uvm_string_to_action $end
$upscope $end

$scope function set_config_int $end
$var reg 4096 Q! value [4095:0] $end
$upscope $end

$scope function set_config_object $end
$var reg 1 R! clone $end
$upscope $end

$scope function set_config_string $end
$upscope $end

$scope function uvm_is_match $end
$var reg 1 S! uvm_is_match $end
$upscope $end

$scope function uvm_string_to_bits $end
$var reg 115200 T! uvm_string_to_bits [115199:0] $end
$upscope $end

$scope function uvm_bits_to_string $end
$var reg 115200 U! str [115199:0] $end
$upscope $end

$scope task uvm_wait_for_nba_region $end
$var integer 32 V! nba $end
$var integer 32 W! next_nba $end
$upscope $end

$scope function uvm_split_string $end
$upscope $end

$scope function uvm_hdl_concat2string $end
$upscope $end
$upscope $end

$scope begin agent_pkg $end
$upscope $end

$scope begin env_pkg $end
$upscope $end

$scope begin seq_lib_pkg $end
$upscope $end

$scope begin test_lib_pkg $end
$upscope $end

$scope begin top_tb_sv_unit $end
$upscope $end

$scope begin std $end
$upscope $end
$enddefinitions $end
#0
$dumpvars
x;
x=
bx >
bx ?
x@
xA
xC
b0 D
b0 E
bx G
bx H
bx I
xJ
0;!
0=!
0O!
b0 P!
0S!
bx T!
bx U!
bx w
bx y
bx z
bx }
bx "!
1r
0-!
b1110010 .!
b11100000011100011101010010111100 /!
b1 5!
09!
0?!
0A!
b0 C!
b0 D!
bx Q!
0R!
b10000000000 K
b1000000000000 L
b1111000000000000000000000000 M
b10001 N
b10101010101 O
b101010101 P
b101010101 Q
b0 R
b1 S
b10 T
b100 U
b1000 V
b10000 W
b100000 X
b1000000 Y
b10000000 Z
b100000000 [
b1000000000 \
b10000000000000 ]
b100000000000000 ^
b1000000000000000 _
b10000000000000000 `
b100000000000000000 a
b100000000000000001 b
b100000000000000010 c
b100000000000000011 d
b100000000000000100 e
b100000000000000101 f
b100000000000000110 g
b100000000000000110 h
b100000000000000111 i
b100000000000001000 j
b100000000000001000 k
b100110000010001110110110110 l
b1 m
b1111000 n
b1111000 o
b1110111111 p
b11100000111111111 q
b0 B
b0 F
b0 #!
b1 $!
b0 %!
b0 &!
b0 '!
b0 (!
b101110 1!
b0 2!
b10010 3!
b11111111111111111111111111111111 4!
b0 <!
b0 u
b0 v
b0 x
b0 |
b0 ~
b0 !!
b11101101101010010110101010001100 s
b101110 )!
b111 *!
b110000110101001111100010101011 +!
b11101101101010010110101010001100 ,!
b11011110000001100101100101101101 0!
b100000 6!
b10000000000000000000000000 7!
b0 8!
b0 :!
b111110100 B!
b0 E!
b0 F!
b0 G!
b0 H!
b0 I!
b0 J!
b0 K!
b0 L!
b0 M!
b0 N!
b100100 V!
b100100 W!
b11111111111111111111111111111111 t
bx {
bx >!
bx @!
x<
0!
1"
0#
0*
0)
0(
0'
0&
0%
0$
02
01
00
0/
0.
0-
0,
0+
x:
x9
x8
x7
x6
x5
x4
x3
$end
#10
1!
b100101 W!
b110000110101001111100010101100 0!
b0 >
b0 ?
0@
0A
b0 G
b0 I
0C
b100101 V!
0:
09
08
07
06
05
04
03
#20
0!
#30
1!
b100110 W!
b110000110101001111100010101110 0!
b100110 V!
#40
0!
#50
1!
b100111 W!
b110000110101001111100010110001 0!
b100111 V!
#60
0!
#70
1!
b101000 W!
b110000110101001111100010110101 0!
b101000 V!
#80
0!
#90
1!
b101001 W!
b110000110101001111100010111010 0!
b101001 V!
#100
0!
#110
1!
b101010 W!
b110000110101001111100011000000 0!
b101010 V!
#120
0!
#130
1!
b101011 W!
b110000110101001111100011000111 0!
b101011 V!
#140
0!
#150
1!
b101100 W!
b110000110101001111100011001111 0!
b101100 V!
#160
0!
#170
1!
b101101 W!
b110000110101001111100011011000 0!
b101101 V!
#180
0!
#190
1!
b101110 W!
b110000110101001111100011100010 0!
b101110 V!
#200
0!
#210
1!
b101111 W!
b110000110101001111100011101101 0!
b101111 V!
#220
0!
#230
1!
b110000 W!
b110000110101001111100011111001 0!
b110000 V!
#240
0!
#250
1!
b110001 W!
b110000110101001111100100000110 0!
b110001 V!
#260
0!
#270
1!
b110010 W!
b110000110101001111100100010100 0!
b110010 V!
#280
0!
